…
``` r
quality_white.df = add_column(quality_white.df, color = "white")
```

**4. Join the two data frames into a single data frame**

``` r
wine_quality.df = union_all(quality_red.df, quality_white.df)
print(wine_quality.df)
```

    ## # A tibble: 6,497 × 13
    ##    fixed…¹ volat…² citri…³ resid…⁴ chlor…⁵ free.…⁶ total…⁷ density    pH sulph…⁸
    ##      <dbl>   <dbl>   <dbl>   <dbl>   <dbl>   <dbl>   <dbl>   <dbl> <dbl>   <dbl>
    ##  1     7.4    0.7     0        1.9   0.076      11      34   0.998  3.51    0.56
    ##  2     7.8    0.88    0        2.6   0.098      25      67   0.997  3.2     0.68
    ##  3     7.8    0.76    0.04     2.3   0.092      15      54   0.997  3.26    0.65
    ##  4    11.2    0.28    0.56     1.9   0.075      17      60   0.998  3.16    0.58
    ##  5     7.4    0.7     0        1.9   0.076      11      34   0.998  3.51    0.56
    ##  6     7.4    0.66    0        1.8   0.075      13      40   0.998  3.51    0.56
    ##  7     7.9    0.6     0.06     1.6   0.069      15      59   0.996  3.3     0.46
    ##  8     7.3    0.65    0        1.2   0.065      15      21   0.995  3.39    0.47
    ##  9     7.8    0.58    0.02     2     0.073       9      18   0.997  3.36    0.57
    ## 10     7.5    0.5     0.36     6.1   0.071      17     102   0.998  3.35    0.8 
    ## # … with 6,487 more rows, 3 more variables: alcohol <dbl>, quality <int>,
    ## #   color <chr>, and abbreviated variable names ¹​fixed.acidity,
    ## #   ²​volatile.acidity, ³​citric.acid, ⁴​residual.sugar, ⁵​chlorides,
    ## #   ⁶​free.sulfur.dioxide, ⁷​total.sulfur.dioxide, ⁸​sulphates
…
**11. Use gather from tidyr so that each numerical variable is a single
row; retain the color variable so that the data can be split up by
color**

``` r
wine_quality_long = gather(wine_quality.df, key=variable, value, -color)
wine_quality_long
```

    ## # A tibble: 77,964 × 3
    ##    color variable      value
    ##    <fct> <chr>         <dbl>
    ##  1 red   fixed.acidity   7.4
    ##  2 red   fixed.acidity   7.8
    ##  3 red   fixed.acidity   7.8
    ##  4 red   fixed.acidity  11.2
    ##  5 red   fixed.acidity   7.4
    ##  6 red   fixed.acidity   7.4
    ##  7 red   fixed.acidity   7.9
    ##  8 red   fixed.acidity   7.3
    ##  9 red   fixed.acidity   7.8
    ## 10 red   fixed.acidity   7.5
    ## # … with 77,954 more rows
…
