…
``` r
hw3.xlsx = read_excel("C:\\Users\\I566801\\OneDrive - SAP SE\\Documents\\Drexel\\MATH 318\\Homework 3\\Folds5x2_pp.xlsx")
```

``` r
hw3.df = as_tibble(hw3.xlsx) # casts to tibble type
print(hw3.df)
```

    ## # A tibble: 9,568 × 5
    ##       AT     V    AP    RH    PE
    ##    <dbl> <dbl> <dbl> <dbl> <dbl>
    ##  1 15.0   41.8 1024.  73.2  463.
    ##  2 25.2   63.0 1020.  59.1  444.
    ##  3  5.11  39.4 1012.  92.1  489.
    ##  4 20.9   57.3 1010.  76.6  446.
    ##  5 10.8   37.5 1009.  96.6  474.
    ##  6 26.3   59.4 1012.  58.8  444.
    ##  7 15.9   44.0 1014.  75.2  467.
    ##  8  9.48  44.7 1019.  66.4  478.
    ##  9 14.6   45   1022.  41.2  476.
    ## 10 11.7   43.6 1015.  70.7  478.
    ## # … with 9,558 more rows
…
It can be observed that temperature (AT) and exhaust vacuum (V) are
strongly positively correlated with each other.

#### 5. Looking at histograms of the variables, do any of them appear to be normally distributed?

Use gather() from tidyr so that each numerical variable is a single row

``` r
hw3_long <- gather(hw3.df, key = "variable", value)
hw3_long
```

    ## # A tibble: 47,840 × 2
    ##    variable value
    ##    <chr>    <dbl>
    ##  1 AT       15.0 
    ##  2 AT       25.2 
    ##  3 AT        5.11
    ##  4 AT       20.9 
    ##  5 AT       10.8 
    ##  6 AT       26.3 
    ##  7 AT       15.9 
    ##  8 AT        9.48
    ##  9 AT       14.6 
    ## 10 AT       11.7 
    ## # … with 47,830 more rows
…
