…
``` r
train.df = union_all(train_red.df, train_white.df)
test.df = union_all(test_red.df, test_white.df)
```

**6. Plot the training data**

Convert `color` column into categorical type

``` r
train.df$color <- as.factor(train.df$color)
train.df
```

    ## # A tibble: 2,000 × 13
    ##    fixed…¹ volat…² citri…³ resid…⁴ chlor…⁵ free.…⁶ total…⁷ density    pH sulph…⁸
    ##      <dbl>   <dbl>   <dbl>   <dbl>   <dbl>   <dbl>   <dbl>   <dbl> <dbl>   <dbl>
    ##  1    13.2    0.38    0.55     2.7   0.081       5      16   1.00   2.98    0.54
    ##  2     9.8    0.51    0.19     3.2   0.081       8      30   0.998  3.23    0.58
    ##  3     7.5    0.63    0.27     2     0.083      17      91   0.996  3.26    0.58
    ##  4     6.9    0.54    0.04     3     0.077       7      27   0.999  3.69    0.91
    ##  5     6.6    0.61    0.01     1.9   0.08        8      25   0.997  3.69    0.73
    ##  6     5.4    0.58    0.08     1.9   0.059      20      31   0.995  3.5     0.64
    ##  7     8.9    0.4     0.32     5.6   0.087      10      47   0.999  3.38    0.77
    ##  8     7.1    0.62    0.06     1.3   0.07        5      12   0.994  3.17    0.48
    ##  9     6.8    0.63    0.12     3.8   0.099      16     126   0.997  3.28    0.61
    ## 10     9.9    0.74    0.19     5.8   0.111      33      76   0.999  3.14    0.55
    ## # … with 1,990 more rows, 3 more variables: alcohol <dbl>, quality <int>,
    ## #   color <fct>, and abbreviated variable names ¹​fixed.acidity,
    ## #   ²​volatile.acidity, ³​citric.acid, ⁴​residual.sugar, ⁵​chlorides,
    ## #   ⁶​free.sulfur.dioxide, ⁷​total.sulfur.dioxide, ⁸​sulphates
…
