…
``` r
hw5.df = as_tibble(hw5.xlsx) # casts to tibble type
print(hw5.df)
```

    ## # A tibble: 372 × 109
    ##    START YE…¹ START…² COMPL…³ COMPL…⁴ `V-1` `V-2` `V-3`  `V-4` `V-5` `V-6` `V-7`
    ##         <dbl>   <dbl>   <dbl>   <dbl> <dbl> <dbl> <dbl>  <dbl> <dbl> <dbl> <dbl>
    ##  1         81       1      85       1     1  3150   920  598.    190 1011.    16
    ##  2         84       1      89       4     1  7600  1140 3040     400  964.    23
    ##  3         78       1      81       4     1  4800   840  480     100  690.    15
    ##  4         72       2      73       2     1   685   202   13.7    20  460.     4
    ##  5         87       1      90       2     1  3000   800 1230     410  632.    13
    ##  6         87       1      90       1     1  2500   640 1050     420  647.    12
    ##  7         87       2      90       1     1  1810   492 1158.    640  844.    11
    ##  8         88       1      89       3     1  1150   380  575     500  591.     6
    ##  9         76       3      77       4     1  2110   540  190.     90  732.     5
    ## 10         80       1      80       4     1  3030   930  515.    170 1007.     3
    ## # … with 362 more rows, 98 more variables: `V-8` <dbl>, `V-11...13` <dbl>,
    ## #   `V-12...14` <dbl>, `V-13...15` <dbl>, `V-14...16` <dbl>, `V-15...17` <dbl>,
    ## #   `V-16...18` <dbl>, `V-17...19` <dbl>, `V-18...20` <dbl>, `V-19...21` <dbl>,
    ## #   `V-20...22` <dbl>, `V-21...23` <dbl>, `V-22...24` <dbl>, `V-23...25` <dbl>,
    ## #   `V-24...26` <dbl>, `V-25...27` <dbl>, `V-26...28` <dbl>, `V-27...29` <dbl>,
    ## #   `V-28...30` <dbl>, `V-29...31` <dbl>, `V-11...32` <dbl>, `V-12...33` <dbl>,
    ## #   `V-13...34` <dbl>, `V-14...35` <dbl>, `V-15...36` <dbl>, …
…
