…
    ## ── Attaching packages ─────────────────────────────────────── tidyverse 1.3.2 ──
    ## ✔ ggplot2 3.4.0      ✔ purrr   1.0.1 
    ## ✔ tibble  3.1.8      ✔ dplyr   1.0.10
    ## ✔ tidyr   1.2.1      ✔ stringr 1.5.0 
    ## ✔ readr   2.1.3      ✔ forcats 0.5.2 
    ## ── Conflicts ────────────────────────────────────────── tidyverse_conflicts() ──
    ## ✖ dplyr::filter() masks stats::filter()
    ## ✖ dplyr::lag()    masks stats::lag()

``` r
hw1.df = as_tibble(hw1.csv) # casts to tibble type
print(hw1.df)
```

    ## # A tibble: 100 × 2
    ##     Site  Value
    ##    <dbl>  <dbl>
    ##  1 3.08  -14.1 
    ##  2 2.58  -15.7 
    ##  3 5.52   -8.86
    ##  4 0.564 -17.9 
    ##  5 4.69  -11.8 
    ##  6 4.84   -9.83
    ##  7 8.12   -4.45
    ##  8 3.70  -11.7 
    ##  9 5.47   -8.38
    ## 10 1.70  -17.0 
    ## # … with 90 more rows
…
